{
  "name": "Your Itinerary",
  "start_date": "2020-10-07T07:49:38.586310345Z",
  "risk_level": "amber",
  "recommendation": "We advise you to plan your trip taking into account restrictions in place. Also, one of the destinations in this itinerary has a containment and health index of 56%, which is an indicator of how closed the country is to travelers; a stringency index of 46% which determines how challenging it will be to move within the country, attend events, conduct business and access public transportation; and an economic support index of 75% which indicates how much was spent in countering the inpact of the pandemic on the economy.",
  "requirements": {"tests": "required", "quarantine": "required", "masks": "required"},
  "trips": [
    {
      "from": "London, Canada",
      "to": "Paris, France (ORY)",
      "from_airport": "",
      "to_airport": "ORY",
      "start_date": "2020-10-07T07:49:38.586310345Z",
      "advice": {
        "country_code": "FR",
        "lat": "49.01",
        "lon": "2.55",
        "date": "2020-10-07T07:49:38.884218723Z",
        "level": 2,
        "level_desc": "Level 2: Quarantine/self-isolation arrivals from some or all regions",
        "government_response_index": "59",
        "stringency_index": "46",
        "containment_and_health_index": "56",
        "economic_support_index": "75",
        "recommendation": "We advise you to plan your trip taking into account restrictions in place such as international travel, circulation and public transport, schools and businesses and events and gatherings. Also, this destination has a containment and health index of 56%, which is an indicator of how closed the country is to travelers; a stringency index of 46% which determines how challenging it will be to move within the country, attend events, conduct business and access public transportation; and an economic support index of 75% which indicates how much was spent in countering the inpact of the pandemic on the economy.",
        "requirements": {"tests": "required", "quarantine": "required", "masks": "required"},
        "restrictions": {
          "international_travel_controls": {
            "level": 2,
            "level_desc": "Level 2: Quarantine/self-isolation arrivals from some or all regions"
          },
          "restrictions_on_internal_movement": {
            "level": 1,
            "level_desc": "Level 1: Recommend not to travel between regions/cities"
          },
          "close_public_transport": {
            "level": 1,
            "level_desc": "Level 1: Recommend closing (or significantly reduce volume/route/means of transport available)"
          },
          "stay_at_home_requirements": {"level": 1, "level_desc": "Level 1: Recommend not leaving house"},
          "cancel_public_events": {"level": 2, "level_desc": "Level 2: Require cancelling "},
          "restrictions_on_gatherings": {
            "level": 3,
            "level_desc": "Level 3: Restrictions on gatherings between 11-100 people"
          },
          "workplace_closing": {
            "level": 2,
            "level_desc": "Level 2: Require closing (or work from home) for some sectors or categories of workers "
          },
          "school_closing": {"level": 1, "level_desc": "Level 1: Recommend closing"},
          "testing_policy": {
            "level": 3,
            "level_desc": "Level 3: Open public testing (e.g. \"drive through\" testing available to asymptomatic people)"
          },
          "contact_tracing": {
            "level": 2,
            "level_desc": "Level 2: Comprehensive contact tracing; done for all identified cases"
          }
        }
      },
      "covid19_stats": {
        "id": "432b23bf-8b7e-4a44-a265-45d67c9c14db",
        "country_iso": "FRA",
        "country": "France",
        "lat": "49.01",
        "lon": "2.55",
        "continent": "Europe",
        "date": "2020-10-03T00:00:00Z",
        "total_cases": 589653,
        "new_cases": 12148,
        "total_deaths": 32155,
        "new_deaths": 136,
        "total_cases_per_million": 9033.572,
        "new_cases_per_million": 186.109,
        "total_deaths_per_million": 492.619,
        "new_deaths_per_million": 2.084,
        "population": 65273512,
        "population_density": 122.578,
        "median_age": 42,
        "aged_65_older": 19.718,
        "aged_70_older": 13.079,
        "gdp_per_capita": 38605.671,
        "cvd_death_rate": 0,
        "diabetes_prevalence": 4.77,
        "handwashing_facilities": 0,
        "hospital_beds_per_thousand": 5.98,
        "life_expectancy": 82.66
      },
      "data": {
        "containment_and_closure": {
          "school_closing": {
            "level": 1,
            "level_desc": "Level 1: Recommend closing",
            "notes": [
              {
                "country_code": "FR",
                "type": "school_closing",
                "note": "From Tuesday 22 September, 2020, classes are no longer being closed if only one or two pupils has been tested positive. Their classmates and teachers are no longer considered as \"contact cases\". This measure aims at diminishing the frequency of schools closing  /web/20200923080458/https://www.20minutes.fr/sante/2866611-20200921-coronavirus-partir-mardi-protocole-sanitaire-allege-ecoles",
                "date": "2020-09-22T00:00:00Z"
              },
              {
                "country_code": "FR",
                "type": "school_closing",
                "note": "Since September 3, classes and schools are closed locally when Covid cases are been detected. https://web.archive.org/web/20200915080853/https://www.francebleu.fr/infos/societe/covid-19-deux-premieres-classes-fermees-a-paris-apres-un-cas-de-contamination-1599150031",
                "date": "2020-09-03T00:00:00Z"
              },
              {
                "country_code": "FR",
                "type": "school_closing",
                "note": "All students and professors who return to school on Tuesday, 1st September will have to wear masks. If a student displays symptoms, a protocol on dealing with this will be in place.     https://web.archive.org/web/20200827221555/https://www.gouvernement.fr/sites/default/files/document/document/2020/08/presentation_-_point_de_situation_sur_la_covid-19_-_27.08.2020.pdf",
                "date": "2020-08-27T00:00:00Z"
              },
              {
                "country_code": "FR",
                "type": "school_closing",
                "note": "Nurseries, kindergartens and schools in two departments worst affected by the coronavirus will be closed for two weeks starting Monday, French Prime Minister Édouard Philippe announced Friday as the death toll from the virus rose to nine with 613 confirmed cases in France.  http://web.archive.org/web/20200425094327/https://www.france24.com/en/20200306-macron-urges-limits-to-visits-to-elderly-as-france-s-coronavirus-tolls-rise",
                "date": "2020-03-06T00:00:00Z"
              },
              {
                "country_code": "FR",
                "type": "school_closing",
                "note": "Both primary and secondary schools have been shut in the Oise department north of Paris and in Brittany, where the main clusters of French cases have emerged, and where two people who have died of the virus lived.  France’s education minister, Jean-Michel Blanquer, said around 120 schools have been ordered to close, most in Brittany and the Oise region north of Paris, which have been hit hard by COVID-19, the disease caused by the new coronavirus. Tens of thousands of students sent home.   http://web.archive.org/web/20200425093620/https://www.marketwatch.com/story/france-germany-close-schools-in-virus-cluster-zones-2020-03-03  http://web.archive.org/web/20200425093817/https://www.france24.com/en/20200303-france-shuts-dozens-of-schools-in-areas-hit-by-coronavirus  http://web.archive.org/web/20200425094327/https://www.france24.com/en/20200306-macron-urges-limits-to-visits-to-elderly-as-france-s-coronavirus-tolls-rise  ",
                "date": "2020-03-03T00:00:00Z"
              },
              {
                "country_code": "FR",
                "type": "school_closing",
                "note": "Le Figaro is among the established media outlets reporting that all schools in 12 municipalities of Oise and Morbihan (in Northern France and Brittany) are closed from Monday, 2 March 2020 until at least 14 March, 2020. Archived report (in French): https://web.archive.org/web/20200514222523/https://etudiant.lefigaro.fr/article/coronavirus-les-ecoles-de-neuf-communes-de-l-oise-sont-fermees-pour-14-jours_28d727a8-5c60-11ea-8a33-ca35e4bd44df/",
                "date": "2020-03-02T00:00:00Z"
              }
            ]
          },
          "workplace_closing": {
            "level": 2,
            "level_desc": "Level 2: Require closing (or work from home) for some sectors or categories of workers ",
            "notes": [
              {
                "country_code": "FR",
                "type": "workplace_closing",
                "note": "A total closure of bars and restaurants in both the Aix-Marseille region and the French overseas territory of Guadeloupe was announced by Veran as well, starting from Saturday for 14 days. These are the two zones placed on maximum alert.   https://web.archive.org/web/20200926094132/https://www.aa.com.tr/en/europe/france-to-roll-out-new-measures-as-covid-19-surges/1983688",
                "date": "2020-09-26T00:00:00Z"
              },
              {
                "country_code": "FR",
                "type": "workplace_closing",
                "note": "Since August 14, several departments have 'turned to red', which means that préfets can decide on restricting activities or closing certain businesses (bars, theatres, pools, markets...).  https://web.archive.org/web/20200915142813/https://www.rtbf.be/info/societe/detail_france-sept-nouveaux-departements-classes-en-zone-de-circulation-active-du-coronavirus?id=10577551  https://web.archive.org/web/20200915082254/https://www.bfmtv.com/sante/covid-19-quelles-mesures-les-prefets-peuvent-ils-prendre-dans-les-zones-rouges_AV-202009130122.html  https://web.archive.org/web/20200915085810/https://www.gouvernement.fr/info-coronavirus/loisirs  Remote work is no longer \"the norm\" but simply recommended: \"Le télétravail n’est plus la norme mais peut rester une solution à privilégier en cas de circulation active du virus.\" https://web.archive.org/web/20200915082351/https://www.gouvernement.fr/info-coronavirus/retour-au-travail  Night clubs have not been allowed to open throughout the period closed.",
                "date": "2020-08-14T00:00:00Z"
              },
              {
                "country_code": "FR",
                "type": "workplace_closing",
                "note": "In most regions, restrictions on work have been lifted, but the government recommends working remotely wherever possible. In regions with local outbreaks, stricter policies may remain in place.     https://archive.vn/3Dxvq",
                "date": "2020-05-26T00:00:00Z"
              },
              {
                "country_code": "FR",
                "type": "workplace_closing",
                "note": "Complete lockdown  http://web.archive.org/web/20200421162501/https://www.theguardian.com/world/2020/apr/19/israel-and-south-korea-to-ease-coronavirus-lockdowns",
                "date": "2020-04-17T00:00:00Z"
              },
              {
                "country_code": "FR",
                "type": "workplace_closing",
                "note": "Complete lockdown  http://web.archive.org/web/20200421162501/https://www.theguardian.com/world/2020/apr/19/israel-and-south-korea-to-ease-coronavirus-lockdowns",
                "date": "2020-04-16T00:00:00Z"
              },
              {
                "country_code": "FR",
                "type": "workplace_closing",
                "note": "Complete lockdown  http://web.archive.org/web/20200421162501/https://www.theguardian.com/world/2020/apr/19/israel-and-south-korea-to-ease-coronavirus-lockdowns",
                "date": "2020-04-15T00:00:00Z"
              },
              {
                "country_code": "FR",
                "type": "workplace_closing",
                "note": "Complete lockdown  http://web.archive.org/web/20200421162501/https://www.theguardian.com/world/2020/apr/19/israel-and-south-korea-to-ease-coronavirus-lockdowns",
                "date": "2020-04-14T00:00:00Z"
              },
              {
                "country_code": "FR",
                "type": "workplace_closing",
                "note": "Complete lockdown  http://web.archive.org/web/20200421162501/https://www.theguardian.com/world/2020/apr/19/israel-and-south-korea-to-ease-coronavirus-lockdowns",
                "date": "2020-04-13T00:00:00Z"
              },
              {
                "country_code": "FR",
                "type": "workplace_closing",
                "note": "Complete lockdown  http://web.archive.org/web/20200421162501/https://www.theguardian.com/world/2020/apr/19/israel-and-south-korea-to-ease-coronavirus-lockdowns",
                "date": "2020-04-12T00:00:00Z"
              },
              {
                "country_code": "FR",
                "type": "workplace_closing",
                "note": "Complete lockdown  http://web.archive.org/web/20200421162501/https://www.theguardian.com/world/2020/apr/19/israel-and-south-korea-to-ease-coronavirus-lockdowns",
                "date": "2020-04-11T00:00:00Z"
              },
              {
                "country_code": "FR",
                "type": "workplace_closing",
                "note": "Complete lockdown  http://web.archive.org/web/20200421162501/https://www.theguardian.com/world/2020/apr/19/israel-and-south-korea-to-ease-coronavirus-lockdowns",
                "date": "2020-04-10T00:00:00Z"
              },
              {
                "country_code": "FR",
                "type": "workplace_closing",
                "note": "Complete lockdown  http://web.archive.org/web/20200421162501/https://www.theguardian.com/world/2020/apr/19/israel-and-south-korea-to-ease-coronavirus-lockdowns",
                "date": "2020-04-09T00:00:00Z"
              },
              {
                "country_code": "FR",
                "type": "workplace_closing",
                "note": "Complete lockdown  http://web.archive.org/web/20200421162501/https://www.theguardian.com/world/2020/apr/19/israel-and-south-korea-to-ease-coronavirus-lockdowns",
                "date": "2020-04-08T00:00:00Z"
              },
              {
                "country_code": "FR",
                "type": "workplace_closing",
                "note": "Complete lockdown  http://web.archive.org/web/20200421162501/https://www.theguardian.com/world/2020/apr/19/israel-and-south-korea-to-ease-coronavirus-lockdowns",
                "date": "2020-04-07T00:00:00Z"
              },
              {
                "country_code": "FR",
                "type": "workplace_closing",
                "note": "https://web.archive.org/save/https://data.humdata.org/dataset/acaps-covid19-government-measures-dataset",
                "date": "2020-04-01T00:00:00Z"
              },
              {
                "country_code": "FR",
                "type": "workplace_closing",
                "note": "https://web.archive.org/save/https://data.humdata.org/dataset/acaps-covid19-government-measures-dataset",
                "date": "2020-03-31T00:00:00Z"
              },
              {
                "country_code": "FR",
                "type": "workplace_closing",
                "note": "https://web.archive.org/save/https://data.humdata.org/dataset/acaps-covid19-government-measures-dataset",
                "date": "2020-03-30T00:00:00Z"
              },
              {
                "country_code": "FR",
                "type": "workplace_closing",
                "note": "https://web.archive.org/save/https://data.humdata.org/dataset/acaps-covid19-government-measures-dataset",
                "date": "2020-03-29T00:00:00Z"
              },
              {
                "country_code": "FR",
                "type": "workplace_closing",
                "note": "https://web.archive.org/save/https://data.humdata.org/dataset/acaps-covid19-government-measures-dataset",
                "date": "2020-03-28T00:00:00Z"
              },
              {
                "country_code": "FR",
                "type": "workplace_closing",
                "note": "https://web.archive.org/save/https://data.humdata.org/dataset/acaps-covid19-government-measures-dataset",
                "date": "2020-03-27T00:00:00Z"
              }
            ]
          },
          "cancel_public_events": {
            "level": 1,
            "level_desc": "Level 1: Recommend cancelling ",
            "notes": [
              {
                "country_code": "FR",
                "type": "cancel_public_events",
                "note": "The Tour de France started on August 29.  https://web.archive.org/web/20200915143200/https://www.lemonde.fr/sport/article/2020/04/15/le-cyclisme-se-raccroche-a-un-tour-decale-fin-aout-pour-assurer-sa-survie_6036621_3242.html ",
                "date": "2020-08-29T00:00:00Z"
              },
              {
                "country_code": "FR",
                "type": "cancel_public_events",
                "note": "In most cities, the 14th of July's festivities were cancelled. Gatherings of more than 5000 are forbidden, but firework shows were still on in some cities, in various locations to avoid the formation of crowds. https://web.archive.org/web/20200915143427/https://france3-regions.francetvinfo.fr/hauts-de-france/carte-14-juillet-covid-19-voici-feux-artifice-concerts-maintenus-nord-pas-calais-1852168.html ",
                "date": "2020-07-14T00:00:00Z"
              },
              {
                "country_code": "FR",
                "type": "cancel_public_events",
                "note": "Stadiums and racing tracks may reopen to the public from 11 July. There is an upper limit of 5,000 people per venue.  https://web.archive.org/web/20200927114257/https://www.gouvernement.fr/en/coronavirus-covid-19    However, at the request of the Council of State which had been seized, demonstrations subject to the obligation of a prior declaration are again authorized. The participants must not be more than 5,000 and must respect the sanitary rules (physical distance of at least one meter between people, systematic wearing of the mask when the respect of this distance is not guaranteed, barrier gestures).  https://web.archive.org/web/20200916095459/https://www.service-public.fr/particuliers/actualites/A14105  ",
                "date": "2020-07-11T00:00:00Z"
              },
              {
                "country_code": "FR",
                "type": "cancel_public_events",
                "note": "Officially, gatherings of more than 5000 are forbidden until October 30.  https://web.archive.org/web/20200915145022/https://www.gouvernement.fr/info-coronavirus  Manifestations, although they are officially forbidden, are tolerated in the wake of George Floyd's murder, said the Minister Christophe Castaner.  /web/20200915144206/https://www.lexpress.fr/actualite/societe/rassemblements-toleres-contre-les-violences-policieres-colere-de-la-droite-et-du-rn_2127811.html  Similarly, the \"Fête de la Musique\" festivities are officially cancelled, but private parties and concerts are tolerated.  2T to reflect the discrepancy between official rules and what is actually being implemented.",
                "date": "2020-06-09T00:00:00Z"
              },
              {
                "country_code": "FR",
                "type": "cancel_public_events",
                "note": "At this point onwards, only essential services are running. Given there was no specific policy for public events, this marks a change of policy for this parameter.  https://web.archive.org/web/20200416095041/http://www.leparisien.fr/societe/coronavirus-edouard-philippe-annonce-la-fermeture-des-lieux-publics-non-essentiels-14-03-2020-8280051.php",
                "date": "2020-03-13T00:00:00Z"
              },
              {
                "country_code": "FR",
                "type": "cancel_public_events",
                "note": "France bans large indoor gatherings with more than 5000 attendees. Measures announced after an emergency cabinet meeting also include the cancellation of the Paris half-marathon which was to be held on Sunday. Among the events affected by the prohibition of large indoor gatherings is Paris's annual agricultural fair. Its final day, which was scheduled for Sunday, has been cancelled.  https://web.archive.org/web/20200625172238/https://www.bbc.com/news/world-europe-51690657    The government has also banned all public gatherings in the Oise district north of Paris and in La Balme-de-Sillingy, a town in the French Alps where cases have been reported. https://www.reuters.com/article/us-china-health-france/france-bans-gatherings-of-more-than-5000-due-to-coronavirus-idUSKBN20N0MD  ",
                "date": "2020-02-29T00:00:00Z"
              }
            ]
          },
          "restrictions_on_gatherings": {
            "level": 3,
            "level_desc": "Level 3: Restrictions on gatherings between 11-100 people",
            "notes": [
              {
                "country_code": "FR",
                "type": "restrictions_on_gatherings",
                "note": "Following the manifestations in France, the Conseil d'Etat suspends the restriction on public gatherings of 10 people or more, if it is for the purpose of manifesting. Manifestations can gather up to 5000 people.  https://web.archive.org/web/20200916100611/https://www.liberation.fr/france/2020/06/13/le-conseil-d-etat-suspend-l-interdiction-des-rassemblements-de-plus-de-dix-personnes_1791179  Otherwise, gatherings of more than 10 people remain forbidden, hence 3T.",
                "date": "2020-06-13T00:00:00Z"
              },
              {
                "country_code": "FR",
                "type": "restrictions_on_gatherings",
                "note": "Gatherings of over 1000 people banned across France.   https://web.archive.org/web/20200813095749/https://www.france24.com/en/20200308-france-bans-gatherings-of-more-than-1-000-people-to-contain-coronavirus    All public gatherings still banned in certain badly hit regions, hence 4T.  ",
                "date": "2020-03-08T00:00:00Z"
              }
            ]
          },
          "close_public_transport": {
            "level_desc": "Level 0: No Measures",
            "notes": [
              {
                "country_code": "FR",
                "type": "close_public_transport",
                "note": "Started again 22 June: https://web.archive.org/web/20200722155345/https://www.francebleu.fr/infos/transports/transports-en-commun-en-ile-de-france-toutes-les-stations-de-metro-seront-ouvertes-a-partir-du-22-1592483057",
                "date": "2020-07-07T00:00:00Z"
              },
              {
                "country_code": "FR",
                "type": "close_public_transport",
                "note": "\"Public transport in built-up areas will be maintained to allow the French to carry out the strictly necessary trips,\" explained Elisabeth Borne. Longer distance transport between urban areas - by train, coach and plane - will be progressively reduced in order to limit the spread of the virus on national territory. But everyone can return to their home, there will be no sudden stop and no full stop.    la ministre de la transition écologique et solidaire, Elisabeth Borne, et le secrétaire d’Etat aux transports, Jean-Baptiste Djebbari, ont détaillé, dimanche matin, plusieurs mesures d’adaptation à cette nouvelle donne. « Les transports en commun en agglomération seront maintenus pour permettre aux Français d’accomplir les déplacements strictement nécessaires, a expliqué Elisabeth Borne. Les transports de plus longue distance entre les agglomérations – par train, car et avion – seront progressivement réduits afin de limiter la propagation du virus sur le territoire national. Mais tout le monde pourra retourner vers son domicile, il n’y aura pas d’arrêt brutal et pas d’arrêt complet. » https://web.archive.org/save/https://www.lemonde.fr/economie/article/2020/03/16/a-travers-l-hexagone-les-transports-en-mode-virus_6033189_3234.html    “We must absolutely limit movement, meetings and contacts,” French prime minister Edouard Philippe said on Saturday evening. Food shops, tobacconists, banks and public transport will remain open, he said.  http://web.archive.org/web/20200425101434/https://www.theguardian.com/world/2020/mar/14/france-closes-non-essential-public-spaces-due-to-coronavirus      Long-distance transport (trains, buses, planes) will be \"gradually reduced\". There will be around 80% of traffic on the metro. http://web.archive.org/web/20200425102359/https://www.connexionfrance.com/French-news/Covid-19-in-France-Transport-trains-buses-planes-SNCF-gradually-reduced-says-transport-minister",
                "date": "2020-03-16T00:00:00Z"
              },
              {
                "country_code": "FR",
                "type": "close_public_transport",
                "note": "French public transport strike ends. 7/16 Paris Metro lines running, 85% mainline trains running (had been much lower) http://web.archive.org/web/20200425095245/https://www.theguardian.com/world/2020/jan/19/paris-transport-set-to-return-to-normal-as-rail-union-suspends-strike",
                "date": "2020-01-16T00:00:00Z"
              }
            ]
          },
          "restrictions_on_internal_movement": {
            "level_desc": "Level 0: No Measures",
            "notes": [
              {
                "country_code": "FR",
                "type": "restrictions_on_internal_movement",
                "note": "*Travel in France: There has been a sharp rise in the number of COVID-19 cases in France during recent weeks. France has put measures in place to limit the spread of the virus. The French Government has introduced a tiered alert system to indicate where COVID-19 is circulating actively. These are i) alert zones; ii) high alert zones; and iii) critical alert zones. Many of France’s largest cities fall into one of these categories. Restrictions include the partial or total closure of bars, and a limit on the number of people allowed to gather in public. To find out more about local restrictions, please refer to the French government website as well as local guidance.<br>\n*Public spaces and services:Wearing face masks in enclosed public spaces has been compulsory since 20 July. This applies to those aged 11 and over. Local authorities in an increasing number of cities and regions (including Paris), have extended this to also include outdoor public spaces. Failure to comply with these restrictions may result in a fine. Please refer to local guidance for more information. Since 11 May, wearing masks on public transport has been compulsory for all users aged 11 and over, with fines for those who are not compliant. Masks are also compulsory in taxis and private hire vehicles without a plexiglass screen. Some travel operators such as airlines may specify types of masks to be worn on board e.g. surgical masks, and may encourage you to take spares for long journeys. Please check with your travel operator before travelling.",
                "date": "2020-10-06T00:00:00Z"
              },
              {
                "country_code": "FR",
                "type": "restrictions_on_internal_movement",
                "note": "*Travel in France: France has put measures in place to limit the spread of COVID-19. There has been a sharp rise in the number of COVID-19 cases in France during recent weeks, with a significant number of French departments now at ‘heightened alert’. In a number of areas, including many of France’s largest cities, the Government has brought in further restrictive measures. Check local guidance for more information.<br>\n*Public spaces and services: Wearing face masks in enclosed public spaces has been compulsory since 20 July. This applies to those aged 11 and over. Local authorities in an increasing number of cities and regions (including Paris), have extended this to also include outdoor public spaces. Failure to comply with these restrictions may result in a fine. Please refer to local guidance for more information. Since 11 May, wearing masks on public transport has been compulsory for all users aged 11 and over, with fines for those who are not compliant. Masks are also compulsory in taxis and private hire vehicles without a plexiglass screen. Some travel operators such as airlines may specify types of masks to be worn on board e.g. surgical masks, and may encourage you to take spares for long journeys. Please check with your travel operator before travelling.",
                "date": "2020-10-02T00:00:00Z"
              },
              {
                "country_code": "FR",
                "type": "restrictions_on_internal_movement",
                "note": "*Travel in France: France has put measures in place to limit the spread of COVID-19. There has been a sharp rise in the number of COVID-19 cases in France during recent weeks, with a significant number of French departments now at ‘heightened alert’. In a number of areas, including many of France’s largest cities, the Government has brought in further restrictive measures. Check local guidance for more information.<br>\n*Public spaces and services: Wearing face masks in enclosed public spaces has been compulsory since 20 July. This applies to those aged 11 and over. Local authorities in an increasing number of cities and regions (including Paris), have extended this to also include outdoor public spaces. Failure to comply with these restrictions may result in a fine. Please refer to local guidance for more information. Since 11 May, wearing masks on public transport has been compulsory for all users aged 11 and over, with fines for those who are not compliant. Masks are also compulsory in taxis and private hire vehicles without a plexiglass screen. Some travel operators such as airlines may specify types of masks to be worn on board e.g. surgical masks, and may encourage you to take spares for long journeys. Please check with your travel operator before travelling.",
                "date": "2020-10-01T00:00:00Z"
              },
              {
                "country_code": "FR",
                "type": "restrictions_on_internal_movement",
                "note": "*Travel in France: France has put measures in place to limit the spread of COVID-19. There has been a sharp rise in the number of COVID-19 cases in France during recent weeks, with a significant number of French departments now at ‘heightened alert’. In a number of areas, including many of France’s largest cities, the Government has brought in further restrictive measures. Check local guidance for more information.<br>\n*Public spaces and services: Wearing face masks in enclosed public spaces has been compulsory since 20 July. This applies to those aged 11 and over. Local authorities in an increasing number of cities and regions (including Paris), have extended this to also include outdoor public spaces. Failure to comply with these restrictions may result in a fine. Please refer to local guidance for more information. Since 11 May, wearing masks on public transport has been compulsory for all users aged 11 and over, with fines for those who are not compliant. Masks are also compulsory in taxis and private hire vehicles without a plexiglass screen. Some travel operators such as airlines may specify types of masks to be worn on board e.g. surgical masks, and may encourage you to take spares for long journeys. Please check with your travel operator before travelling.",
                "date": "2020-09-28T00:00:00Z"
              },
              {
                "country_code": "FR",
                "type": "restrictions_on_internal_movement",
                "note": "Level 1: Recommend not to travel between regions/cities",
                "date": "2020-09-27T00:00:00Z"
              },
              {
                "country_code": "FR",
                "type": "restrictions_on_internal_movement",
                "note": "Level 1: Recommend not to travel between regions/cities",
                "date": "2020-09-26T00:00:00Z"
              },
              {
                "country_code": "FR",
                "type": "restrictions_on_internal_movement",
                "note": "Level 1: Recommend not to travel between regions/cities",
                "date": "2020-09-25T00:00:00Z"
              },
              {
                "country_code": "FR",
                "type": "restrictions_on_internal_movement",
                "note": "Level 1: Recommend not to travel between regions/cities",
                "date": "2020-09-24T00:00:00Z"
              },
              {
                "country_code": "FR",
                "type": "restrictions_on_internal_movement",
                "note": "Level 1: Recommend not to travel between regions/cities",
                "date": "2020-09-23T00:00:00Z"
              },
              {
                "country_code": "FR",
                "type": "restrictions_on_internal_movement",
                "note": "Level 1: Recommend not to travel between regions/cities",
                "date": "2020-09-22T00:00:00Z"
              },
              {
                "country_code": "FR",
                "type": "restrictions_on_internal_movement",
                "note": "Level 1: Recommend not to travel between regions/cities",
                "date": "2020-09-21T00:00:00Z"
              },
              {
                "country_code": "FR",
                "type": "restrictions_on_internal_movement",
                "note": "Level 1: Recommend not to travel between regions/cities",
                "date": "2020-09-20T00:00:00Z"
              },
              {
                "country_code": "FR",
                "type": "restrictions_on_internal_movement",
                "note": "Level 1: Recommend not to travel between regions/cities",
                "date": "2020-09-19T00:00:00Z"
              },
              {
                "country_code": "FR",
                "type": "restrictions_on_internal_movement",
                "note": "Level 1: Recommend not to travel between regions/cities",
                "date": "2020-09-18T00:00:00Z"
              },
              {
                "country_code": "FR",
                "type": "restrictions_on_internal_movement",
                "note": "Level 1: Recommend not to travel between regions/cities",
                "date": "2020-09-17T00:00:00Z"
              },
              {
                "country_code": "FR",
                "type": "restrictions_on_internal_movement",
                "note": "Level 1: Recommend not to travel between regions/cities",
                "date": "2020-09-16T00:00:00Z"
              },
              {
                "country_code": "FR",
                "type": "restrictions_on_internal_movement",
                "note": "Level 1: Recommend not to travel between regions/cities",
                "date": "2020-09-15T00:00:00Z"
              },
              {
                "country_code": "FR",
                "type": "restrictions_on_internal_movement",
                "note": "Level 1: Recommend not to travel between regions/cities",
                "date": "2020-09-14T00:00:00Z"
              },
              {
                "country_code": "FR",
                "type": "restrictions_on_internal_movement",
                "note": "Level 1: Recommend not to travel between regions/cities",
                "date": "2020-09-13T00:00:00Z"
              },
              {
                "country_code": "FR",
                "type": "restrictions_on_internal_movement",
                "note": "Level 1: Recommend not to travel between regions/cities",
                "date": "2020-09-12T00:00:00Z"
              }
            ]
          },
          "international_travel_controls": {
            "level_desc": "Level 0: No Measures",
            "notes": [
              {
                "country_code": "FR",
                "type": "international_travel_controls",
                "note": "Latest News: High-speed Geneva-Paris, Zurich-Paris TGV train services to be reduced because of COVID-19 quarantine restrictions (The Local, 22.09.2020).",
                "date": "2020-10-06T00:00:00Z"
              },
              {
                "country_code": "FR",
                "type": "international_travel_controls",
                "note": "<br>\n*From EU: Entry Restrictions- Travelling from EU+ countries to Metropolitan France is allowed without restrictions. EU+ comprises EU Member States plus Norway, Switzerland, Iceland, Liechtenstein, Andorra, Monaco, Vatican City State and the Republic of San Marino. Travellers coming from other countries are encouraged to have a negative PCR test before they arrive in France. Those without a negative PCR test will be presented with information upon their arrival in France about the conditions for carrying out a 7-day quarantine at a location of their choice or, where appropriate, in special accommodation. They will be informed of the possibilities for carrying out a test at the airport and in France. Symptomatic travellers during border health checks should be subject to quarantine, regardless of their nationality. Specific rules apply to the French Overseas Territories: all travellers aged over 11 years will have to produce a negative PCR test result, carried out less than 72 hours before boarding, in addition to the rules set out above. Travel to or from French Guiana, French Polynesia, Mayotte, New Caledonia, the Wallis and Futuna islands is allowed only for compelling family or professional reasons. A <a href=\"https://www.interieur.gouv.fr/Actualites/L-actu-du-Ministere/Attestation-de-deplacement-et-de-voyage\">certificate of exemption</a> on restrictions of movement is required to travel to or from these overseas territories. Upon arrival in Metropolitan France from one of these territories, you will be encouraged to submit to a PCR test or, failing that, to comply with a 7-day quarantine period. * Travelling from France or returning to France- Travel Information from the Ministry of Foreign Affairs can be found on the <a href=\"https://www.diplomatie.gouv.fr/fr/conseils-aux-voyageurs/\">Travel Advice</a> page. *Mandatory Travel Documentation- A travel certificate is required. This certificate must be presented to companies before embarking, as well as to border control authorities (for travel by air, sea and land, including by rail). Additionally, travellers must complete and carry a declaration of no symptoms and no contact with a confirmed case of Covid-19 within 14 days prior to the flight. These documents can be downloaded in French and English from the <a href=\"https://www.interieur.gouv.fr/Actualites/L-actu-du-Ministere/Attestation-de-deplacement-et-de-voyage\">Ministry of the Interior's website</a>. *Find out more: <a href=\"https://www.diplomatie.gouv.fr/en/coming-to-france/coronavirus-advice-for-foreign-nationals-in-france/\">here</a>\n<br>\n*Transit: Transit is allowed in the following cases: 1. EU/EEA nationals, as well as their spouse and children, joining their home country via France; 2. third country nationals holding a valid European residence permit or a long-term residence visa transiting via France to their home in an EU/EEA country; 3. international transits of less than 24h, provided that travellers don't leave the airport. Travellers in transit are exempt from voluntary quarantine unless they show symptoms. *Find out more: <a href=\"https://www.diplomatie.gouv.fr/en/coming-to-france/coronavirus-advice-for-foreign-nationals-in-france/\">coronavirus advice for foreign nationals</a>.\n<br>\n*From Third Countries: Travellers from Australia, Canada, Georgia, Japan, Morocco, New Zealand, Rwanda, South Korea, Thailand, Tunisia, Uruguay can enter without restrictions. All the other third-country nationals are subject to quarantine, even if they are asymptomatic. Air passengers arriving from certain countries are required to present results of a negative virology COVID-19 test (a PCR test for example), carried out less than 72 hours before the flight, in the following conditions: - air passengers travelling from Bahrain, the United Arab Emirates, the United States, or Panama, must present a negative virology COVID-19 test upon boarding the flight. - Air passengers travelling from South Africa, Algeria, Argentina, Armenia, Bolivia, Brazil, Chile, Colombia, Costa Rica, Equatorial Guinea, India, Israel, Kyrgyzstan, Kuwait, Lebanon, Madagascar, Maldives, Mexico, Oman, Peru, Qatar, Dominican Republic, Serbia, Palestinian Territories, Turkey, will have to either present a negative PCR test result, carried out less than 72 hours before departure, or submit to such a test at the airport upon arrival in France. The following travellers may be asked to quarantine or remain in isolation upon arrival: - travellers with symptoms of COVID-19 upon arrival into France; - travellers who, upon arrival, cannot show the results of a virology test carried out less than 72 hours before flying, which proves that the traveller does not have COVID-19. Third countries travellers are also required to have a certificate corresponding to their situation (derogatory international trip from abroad to metropolitan France or to an overseas community) and to complete a self-declaration that they don’t have symptoms.",
                "date": "2020-10-06T00:00:00Z"
              },
              {
                "country_code": "FR",
                "type": "international_travel_controls",
                "note": "COVID-19 negative certification required- if coming from outside EU, country white list exempt.\n <br> \nThere are no restrictions for travel to Metropolitan France from the EU/EEA and the following countries: Australia, Canada, Georgia, Japan, New Zealand, Rwanda, South Korea, Thailand, Tunisia, Uruguay. For all passengers a declaration of no symptoms of Covid-19 and no contact with a confirmed case of Covid-19 within 14 days prior to the flight is required. Air passengers arriving from certain countries are required to present results of a negative virology COVID-19 test (a PCR test for example), carried out less than 72 hours before the flight: -Air passengers travelling from Bahrain, the United Arab Emirates, the United States, or Panama, must present a negative virology COVID-19 test upon boarding the flight. -Air passengers travelling from Algeria, Brazil, India, Israel, Kuwait, Madagascar, Oman, Peru, Qatar, Serbia, South Africa or Turkey, who do not present such a document upon arrival in France will be directed towards a medical check point where the test will be carried out. <a href=\"https://www.diplomatie.gouv.fr/en/coming-to-france/coronavirus-advice-for-foreign-nationals-in-france/\">Updated information and FAQs are available at coronavirus advice for foreign nationals</a>.",
                "date": "2020-10-06T00:00:00Z"
              },
              {
                "country_code": "FR",
                "type": "international_travel_controls",
                "note": "Self-isolation at own accommodation-if coming from outside EU (country white list exempt). \n\nNo quarantine required for travelers from the EU/EEA and the following countries: Australia, Canada, Georgia, Japan, New Zealand, Rwanda, South Korea, Thailand, Tunisia, Uruguay. All the other third-country nationals are subject to quarantine, even if they are asymptomatic and a voluntary quarantine is suggested to travellers coming from the United Kingdom. No quarantine required from travellers from Bahrain, the United Arab Emirates, the United States, Panama, from Algeria, Brazil, India, Israel, Kuwait, Madagascar, Oman, Peru, Qatar, Serbia, South Africa or Turkey, if they present a negative result of a virology COVID-19 test conducted at most 72 hours before the flight. \n<br>\nThe following travellers may be asked to quarantine or remain in isolation upon arrival: - travellers with symptoms of COVID-19 upon arrival into France; - travellers arriving from Guadeloupe, French Guiana, Martinique, La Réunion, Mayotte, Saint-Barthélemy, Saint Martin, Saint Pierre and Miquelon, Wallis and Futuna Islands, French Polynesia, New Caledonia, the French Southern and Antarctic Territories and Clipperton; - travellers who, upon arrival, cannot show the results of a virology test carried out less than 72 hours before flying which proves that the traveller does not have COVID-19. Updated information and FAQs are available at <a href=\"https://www.diplomatie.gouv.fr/en/coming-to-france/coronavirus-advice-for-foreign-nationals-in-france/\">coronavirus advice for foreign nationals</a>.",
                "date": "2020-10-06T00:00:00Z"
              },
              {
                "country_code": "FR",
                "type": "airline",
                "note": "Transavia France adds Santiago de Compostela service from April 2021",
                "date": "2020-10-05T00:00:00Z"
              },
              {
                "country_code": "FR",
                "type": "international_travel_controls",
                "note": "COVID-19 negative certification required- if coming from outside EU, country white list exempt.\n\nThere are no restrictions for travel to Metropolitan France from the EU/EEA and the following countries: Australia, Canada, Georgia, Japan, New Zealand, Rwanda, South Korea, Thailand, Tunisia, Uruguay. For all passengers a declaration of no symptoms of Covid-19 and no contact with a confirmed case of Covid-19 within 14 days prior to the flight is required. Air passengers arriving from certain countries are required to present results of a negative virology COVID-19 test (a PCR test for example), carried out less than 72 hours before the flight: -Air passengers travelling from Bahrain, the United Arab Emirates, the United States, or Panama, must present a negative virology COVID-19 test upon boarding the flight. -Air passengers travelling from Algeria, Brazil, India, Israel, Kuwait, Madagascar, Oman, Peru, Qatar, Serbia, South Africa or Turkey, who do not present such a document upon arrival in France will be directed towards a medical check point where the test will be carried out. Updated information and FAQs are available at <a href=\"https://www.diplomatie.gouv.fr/en/coming-to-france/coronavirus-advice-for-foreign-nationals-in-france/\">coronavirus advice for foreign nationals</a>.",
                "date": "2020-10-02T00:00:00Z"
              },
              {
                "country_code": "FR",
                "type": "international_travel_controls",
                "note": "Self-isolation at own accommodation-if coming from outside EU (country white list exempt). \n\nNo quarantine required for travelers from the EU/EEA and the following countries: Australia, Canada, Georgia, Japan, New Zealand, Rwanda, South Korea, Thailand, Tunisia, Uruguay. All the other third-country nationals are subject to quarantine, even if they are asymptomatic and a voluntary quarantine is suggested to travellers coming from the United Kingdom. No quarantine required from travellers from Bahrain, the United Arab Emirates, the United States, Panama, from Algeria, Brazil, India, Israel, Kuwait, Madagascar, Oman, Peru, Qatar, Serbia, South Africa or Turkey, if they present a negative result of a virology COVID-19 test conducted at most 72 hours before the flight. \n<br>\nThe following travellers may be asked to quarantine or remain in isolation upon arrival: - travellers with symptoms of COVID-19 upon arrival into France; - travellers arriving from Guadeloupe, French Guiana, Martinique, La Réunion, Mayotte, Saint-Barthélemy, Saint Martin, Saint Pierre and Miquelon, Wallis and Futuna Islands, French Polynesia, New Caledonia, the French Southern and Antarctic Territories and Clipperton; - travellers who, upon arrival, cannot show the results of a virology test carried out less than 72 hours before flying which proves that the traveller does not have COVID-19. Updated information and FAQs are available at <a href=\"https://www.diplomatie.gouv.fr/en/coming-to-france/coronavirus-advice-for-foreign-nationals-in-france/\">coronavirus advice for foreign nationals</a>.",
                "date": "2020-10-02T00:00:00Z"
              },
              {
                "country_code": "FR",
                "type": "international_travel_controls",
                "note": "<br>\n*Travel from EU: Entry Restrictions: Travelling from EU+ countries to Metropolitan France is allowed without restrictions. EU+ comprises EU Member States plus Norway, Switzerland, Iceland, Liechtenstein, Andorra, Monaco, Vatican City State and the Republic of San Marino.\nTravellers coming from other countries are encouraged to have a negative PCR test before they arrive in France. Those without a negative PCR test will be presented with information upon their arrival in France about the conditions for carrying out a 7-day quarantine at a location of their choice or, where appropriate, in special accommodation. They will be informed of the possibilities for carrying out a test at the airport and in France. Symptomatic travellers during border health checks should be subject to quarantine, regardless of their nationality. Specific rules apply to the French Overseas Territories: all travellers aged over 11 years will have to produce a negative PCR test result, carried out less than 72 hours before boarding, in addition to the rules set out above. Travel to or from French Guiana, French Polynesia, Mayotte, New Caledonia, the Wallis and Futuna islands is allowed only for compelling family or professional reasons. A <a href=\"https://www.interieur.gouv.fr/Actualites/L-actu-du-Ministere/Attestation-de-deplacement-et-de-voyage\">certificate of exemption</a> on restrictions of movement is required to travel to or from these overseas territories.\nUpon arrival in Metropolitan France from one of these territories, you will be encouraged to submit to a PCR test or, failing that, to comply with a 7-day quarantine period.\n*Travelling from France or returning to France: Travel Information from the Ministry of Foreign Affairs can be found on the <a href=\"https://www.diplomatie.gouv.fr/fr/conseils-aux-voyageurs/\">Travel Advice page</a>.\n*Mandatory Travel Documentation: A travel certificate is required. This certificate must be presented to companies before embarking, as well as to border control authorities (for travel by air, sea and land, including by rail). Additionally, travellers must complete and carry a sworn statement that they do not show any symptom of COVID-19. These documents can be downloaded in French and English from the Ministry of the Interior's <a href=\"https://www.interieur.gouv.fr/Actualites/L-actu-du-Ministere/Attestation-de-deplacement-et-de-voyage\">website</a>. Find out more <a href=\"https://www.diplomatie.gouv.fr/en/coming-to-france/coronavirus-advice-for-foreign-nationals-in-france/\">here</a>.\n<br>\n*Transit: Transit is allowed in the following cases: 1. EU/EEA nationals, as well as their spouse and children, joining their home country via France; 2. third country nationals holding a valid European residence permit or a long-term residence visa transiting via France to their home in an EU/EEA country; 3. international transits of less than 24h, provided that travellers don't leave the airport. Travellers in transit are exempt from voluntary quarantine unless they show symptoms.\n<br>\n*From Third Countries: Tavellers from Australia, Canada, Georgia, Japan, Morocco, New Zealand, Rwanda, South Korea, Thailand, Tunisia, Uruguay can enter without restrictions. All the other third-country nationals are subject to quarantine, even if they are asymptomatic. Air passengers arriving from certain countries are required to present results of a negative virology COVID-19 test (a PCR test for example), carried out less than 72 hours before the flight, in the following conditions: - air passengers travelling from Bahrain, the United Arab Emirates, the United States, or Panama, must present a negative virology COVID-19 test upon boarding the flight. - Air passengers travelling from South Africa, Algeria, Argentina, Armenia, Bolivia, Brazil, Chile, Colombia, Costa Rica, Equatorial Guinea, India, Israel, Kyrgyzstan, Kuwait, Lebanon, Madagascar, Maldives, Mexico, Oman, Peru, Qatar, Dominican Republic, Serbia, Palestinian Territories, Turkey, will have to either present a negative PCR test result, carried out less than 72 hours before departure, or submit to such a test at the airport upon arrival in France.\nThe following travellers may be asked to quarantine or remain in isolation upon arrival: - travellers with symptoms of COVID-19 upon arrival into France; - travellers who, upon arrival, cannot show the results of a virology test carried out less than 72 hours before flying, which proves that the traveller does not have COVID-19. Find out more: <a href=\"https://www.diplomatie.gouv.fr/en/coming-to-france/coronavirus-advice-for-foreign-nationals-in-france/\">coronavirus advice for foreign nationals</a>.",
                "date": "2020-10-02T00:00:00Z"
              },
              {
                "country_code": "FR",
                "type": "airline",
                "note": "Ryanair adds Paris Beauvais – Paphos service from late-Oct 2020",
                "date": "2020-10-02T00:00:00Z"
              },
              {
                "country_code": "FR",
                "type": "airline",
                "note": "Air France removes Caracas schedules from late-Oct 2020",
                "date": "2020-10-02T00:00:00Z"
              },
              {
                "country_code": "FR",
                "type": "international_travel_controls",
                "note": "Latest News: High-speed Geneva-Paris, Zurich-Paris TGV train services to be reduced because of COVID-19 quarantine restrictions (The Local, 22.09.2020).",
                "date": "2020-10-02T00:00:00Z"
              },
              {
                "country_code": "FR",
                "type": "international_travel_controls",
                "note": "Latest News: High-speed Geneva-Paris, Zurich-Paris TGV train services to be reduced because of COVID-19 quarantine restrictions (The Local, 22.09.2020).",
                "date": "2020-10-01T00:00:00Z"
              },
              {
                "country_code": "FR",
                "type": "international_travel_controls",
                "note": "<br>\n*Travel from EU: Entry Restrictions: Travelling from EU+ countries to Metropolitan France is allowed without restrictions. EU+ comprises EU Member States plus Norway, Switzerland, Iceland, Liechtenstein, Andorra, Monaco, Vatican City State and the Republic of San Marino.\nTravellers coming from other countries are encouraged to have a negative PCR test before they arrive in France. Those without a negative PCR test will be presented with information upon their arrival in France about the conditions for carrying out a 7-day quarantine at a location of their choice or, where appropriate, in special accommodation. They will be informed of the possibilities for carrying out a test at the airport and in France. Symptomatic travellers during border health checks should be subject to quarantine, regardless of their nationality. Specific rules apply to the French Overseas Territories: all travellers aged over 11 years will have to produce a negative PCR test result, carried out less than 72 hours before boarding, in addition to the rules set out above. Travel to or from French Guiana, French Polynesia, Mayotte, New Caledonia, the Wallis and Futuna islands is allowed only for compelling family or professional reasons. A <a href=\"https://www.interieur.gouv.fr/Actualites/L-actu-du-Ministere/Attestation-de-deplacement-et-de-voyage\">certificate of exemption</a> on restrictions of movement is required to travel to or from these overseas territories.\nUpon arrival in Metropolitan France from one of these territories, you will be encouraged to submit to a PCR test or, failing that, to comply with a 7-day quarantine period. *Travelling from France or returning to France: Travel Information from the Ministry of Foreign Affairs can be found on the <a href=\"https://www.diplomatie.gouv.fr/fr/conseils-aux-voyageurs/\">Travel Advice page</a>. *Mandatory Travel Documentation: A travel certificate is required. This certificate must be presented to companies before embarking, as well as to border control authorities (for travel by air, sea and land, including by rail). Additionally, travellers must complete and carry a sworn statement that they do not show any symptom of COVID-19. These documents can be downloaded in French and English from the Ministry of the Interior's <a href=\"https://www.interieur.gouv.fr/Actualites/L-actu-du-Ministere/Attestation-de-deplacement-et-de-voyage\">website</a>. Find out more <a href=\"https://www.diplomatie.gouv.fr/en/coming-to-france/coronavirus-advice-for-foreign-nationals-in-france/\">here</a>.\n<br>\n*Transit: Transit is allowed in the following cases: 1. EU/EEA nationals, as well as their spouse and children, joining their home country via France; 2. third country nationals holding a valid European residence permit or a long-term residence visa transiting via France to their home in an EU/EEA country; 3. international transits of less than 24h, provided that travellers don't leave the airport. Travellers in transit are exempt from voluntary quarantine unless they show symptoms.\n<br>\n*From Third Countries: Tavellers from Australia, Canada, Georgia, Japan, Morocco, New Zealand, Rwanda, South Korea, Thailand, Tunisia, Uruguay can enter without restrictions. All the other third-country nationals are subject to quarantine, even if they are asymptomatic. Air passengers arriving from certain countries are required to present results of a negative virology COVID-19 test (a PCR test for example), carried out less than 72 hours before the flight, in the following conditions: - air passengers travelling from Bahrain, the United Arab Emirates, the United States, or Panama, must present a negative virology COVID-19 test upon boarding the flight. - Air passengers travelling from South Africa, Algeria, Argentina, Armenia, Bolivia, Brazil, Chile, Colombia, Costa Rica, Equatorial Guinea, India, Israel, Kyrgyzstan, Kuwait, Lebanon, Madagascar, Maldives, Mexico, Oman, Peru, Qatar, Dominican Republic, Serbia, Palestinian Territories, Turkey, will have to either present a negative PCR test result, carried out less than 72 hours before departure, or submit to such a test at the airport upon arrival in France.\nThe following travellers may be asked to quarantine or remain in isolation upon arrival: - travellers with symptoms of COVID-19 upon arrival into France; - travellers who, upon arrival, cannot show the results of a virology test carried out less than 72 hours before flying, which proves that the traveller does not have COVID-19. Find out more: <a href=\"https://www.diplomatie.gouv.fr/en/coming-to-france/coronavirus-advice-for-foreign-nationals-in-france/\">coronavirus advice for foreign nationals</a>.",
                "date": "2020-10-01T00:00:00Z"
              },
              {
                "country_code": "FR",
                "type": "international_travel_controls",
                "note": "COVID-19 negative certification required- if coming from outside EU, country white list exempt.\n\nThere are no restrictions for travel to Metropolitan France from the EU/EEA and the following countries: Australia, Canada, Georgia, Japan, New Zealand, Rwanda, South Korea, Thailand, Tunisia, Uruguay. For all passengers a declaration of no symptoms of Covid-19 and no contact with a confirmed case of Covid-19 within 14 days prior to the flight is required. Air passengers arriving from certain countries are required to present results of a negative virology COVID-19 test (a PCR test for example), carried out less than 72 hours before the flight: -Air passengers travelling from Bahrain, the United Arab Emirates, the United States, or Panama, must present a negative virology COVID-19 test upon boarding the flight. -Air passengers travelling from Algeria, Brazil, India, Israel, Kuwait, Madagascar, Oman, Peru, Qatar, Serbia, South Africa or Turkey, who do not present such a document upon arrival in France will be directed towards a medical check point where the test will be carried out. Updated information and FAQs are available at <a href=\"https://www.diplomatie.gouv.fr/en/coming-to-france/coronavirus-advice-for-foreign-nationals-in-france/\">coronavirus advice for foreign nationals</a>.",
                "date": "2020-10-01T00:00:00Z"
              },
              {
                "country_code": "FR",
                "type": "international_travel_controls",
                "note": "Self-isolation at own accommodation-if coming from outside EU (country white list exempt). \n\nNo quarantine required for travelers from the EU/EEA and the following countries: Australia, Canada, Georgia, Japan, New Zealand, Rwanda, South Korea, Thailand, Tunisia, Uruguay. All the other third-country nationals are subject to quarantine, even if they are asymptomatic and a voluntary quarantine is suggested to travellers coming from the United Kingdom. No quarantine required from travellers from Bahrain, the United Arab Emirates, the United States, Panama, from Algeria, Brazil, India, Israel, Kuwait, Madagascar, Oman, Peru, Qatar, Serbia, South Africa or Turkey, if they present a negative result of a virology COVID-19 test conducted at most 72 hours before the flight. \n<br>\nThe following travellers may be asked to quarantine or remain in isolation upon arrival: - travellers with symptoms of COVID-19 upon arrival into France; - travellers arriving from Guadeloupe, French Guiana, Martinique, La Réunion, Mayotte, Saint-Barthélemy, Saint Martin, Saint Pierre and Miquelon, Wallis and Futuna Islands, French Polynesia, New Caledonia, the French Southern and Antarctic Territories and Clipperton; - travellers who, upon arrival, cannot show the results of a virology test carried out less than 72 hours before flying which proves that the traveller does not have COVID-19. Updated information and FAQs are available at <a href=\"https://www.diplomatie.gouv.fr/en/coming-to-france/coronavirus-advice-for-foreign-nationals-in-france/\">coronavirus advice for foreign nationals</a>.",
                "date": "2020-10-01T00:00:00Z"
              },
              {
                "country_code": "FR",
                "type": "airline",
                "note": "Corsair resumes Dzaoudzi service from Dec 2020",
                "date": "2020-09-30T00:00:00Z"
              },
              {
                "country_code": "FR",
                "type": "airline",
                "note": "Air France Northern winter 2020/21 season Vietnam routing changes as of 29SEP20",
                "date": "2020-09-30T00:00:00Z"
              },
              {
                "country_code": "FR",
                "type": "international_travel_controls",
                "note": "<br>\n*Travel from EU: Travelling to France- Travelling from EU countries is allowed without restrictions. Travelling from Norway, Switzerland, Iceland and Liechtenstein, as well as Andorra, Monaco, Vatican City State and the Republic of San Marino, is allowed without restrictions. *Travelling from France or returning to France-Travel Information from the Ministry of Foreign Affairs can be found on the <a href=\"https://www.diplomatie.gouv.fr/fr/conseils-aux-voyageurs/\">Travel Advice</a> page. *Rules and Exceptions: There are no restrictions for travel to Metropolitan France from the European space (European Union Member States, United Kingdom, Andorra, Iceland, Liechtenstein, Monaco, Norway, San Marina, Switzerland, Vatican) and from the following countries: Australia, Canada, Georgia, Japan, New Zealand, Rwanda, South Korea, Thailand, Tunisia, Uruguay. Travellers coming from other countries are encouraged to have a negative PCR test before they arrive in France. Those without a negative PCR test will be presented with information upon their arrival in France about the conditions for carrying out a 7-day quarantine at a location of their choice or, where appropriate, in special accommodation. They will be informed of the possibilities for carrying out a test at the airport and in France. Symptomatic travellers during border health checks should be subject to quarantine, regardless of their nationality.\n<br>\nSpecific rules apply to the French Overseas Territories: all travellers aged over 11 years will have to produce a negative PCR test result, carried out less than 72 hours before boarding, in addition to the rules set out above.\nYou cannot travel to or from French Guiana, French Polynesia, Mayotte, New Caledonia or the Wallis and Futuna islands if you cannot prove compelling family or professional grounds. You will then have to provide an exempted movement certificate for travel to or from these overseas territories, available on the <a href=\"https://www.interieur.gouv.fr/Actualites/L-actu-du-Ministere/Attestation-de-deplacement-et-de-voyage\">Ministry of the Interior's website</a>. Upon arrival in metropolitan France from one of these territories, you will be encouraged to submit to a PCR test or, failing that, to comply with a 7-day quarantine period. * *Mandatory Travel Documentation: A travel certificate is required. This certificate must be presented to companies before embarking, as well as to border control authorities (for travel by air, sea and land, including by rail). Additionally, travellers must complete and carry a sworn statement that they do not show any Covid-19 symptom. These documents can be downloaded in French and English from the <a href=\"https://www.interieur.gouv.fr/Actualites/L-actu-du-Ministere/Attestation-de-deplacement-et-de-voyage\">Ministry of the Interior's website</a>.\n<br>\n*Transit: In the following cases: 1. EU/EEA nationals, as well as their spouse and children, joining their home country via France, 2. third country nationals holding a valid European residence permit or a long-term residence visa transiting via France to their home in an EU/EEA country, 3. international transits of less than 24h by foreigners; the transit is authorised provided that they have travel documents to the final destination and, in case of third country nationals, they do not enter France. Travellers in transit are exempt from voluntary quarantine unless they show symptoms. Updated information and FAQs are available at <a href=\"https://www.diplomatie.gouv.fr/en/coming-to-france/coronavirus-advice-for-foreign-nationals-in-france/\"> coronavirus advice for foreign nationals</a>.\n<br>\n*From Third Countries: There are no restrictions for travel to Metropolitan France from the EU/EEA and the following countries: Australia, Canada, Georgia, Japan, New Zealand, Rwanda, South Korea, Thailand, Tunisia, Uruguay. All the other third-country nationals are subject to quarantine, even if they are asymptomatic. Air passengers arriving from certain countries are required to present results of a negative virology COVID-19 test (a PCR test for example), carried out less than 72 hours before the flight: - air passengers travelling from Bahrain, the United Arab Emirates, the United States, or Panama, must present a negative virology COVID-19 test upon boarding the flight. - Air passengers travelling from Algeria, Brazil, India, Israel, Kuwait, Madagascar, Oman, Peru, Qatar, Serbia, South Africa or Turkey, who do not present such a document upon arrival in France will be directed towards a medical check point where the test will be carried out. The following travellers may be asked to quarantine or remain in isolation upon arrival: - travellers with symptoms of COVID-19 upon arrival into France; - travellers who, upon arrival, cannot show the results of a virology test carried out less than 72 hours before flying which proves that the traveller does not have COVID-19. Entering the French territory is no longer possible from other countries unless for specific imperious reasons and for French citizens or people living in France. Updated information and FAQs are available at <a href=\"https://www.diplomatie.gouv.fr/en/coming-to-france/coronavirus-advice-for-foreign-nationals-in-france/\">coronavirus advice for foreign nationals</a>.",
                "date": "2020-09-28T00:00:00Z"
              },
              {
                "country_code": "FR",
                "type": "international_travel_controls",
                "note": "Latest News: High-speed Geneva-Paris, Zurich-Paris TGV train services to be reduced because of COVID-19 quarantine restrictions (The Local, 22.09.2020).",
                "date": "2020-09-28T00:00:00Z"
              },
              {
                "country_code": "FR",
                "type": "airline",
                "note": "Air France to operate Chennai-Paris flights from October 26",
                "date": "2020-09-28T00:00:00Z"
              },
              {
                "country_code": "FR",
                "type": "international_travel_controls",
                "note": "COVID-19 negative certification required- if coming from outside EU, country white list exempt.\n\nThere are no restrictions for travel to Metropolitan France from the EU/EEA and the following countries: Australia, Canada, Georgia, Japan, New Zealand, Rwanda, South Korea, Thailand, Tunisia, Uruguay. For all passengers a declaration of no symptoms of Covid-19 and no contact with a confirmed case of Covid-19 within 14 days prior to the flight is required. Air passengers arriving from certain countries are required to present results of a negative virology COVID-19 test (a PCR test for example), carried out less than 72 hours before the flight: -Air passengers travelling from Bahrain, the United Arab Emirates, the United States, or Panama, must present a negative virology COVID-19 test upon boarding the flight. -Air passengers travelling from Algeria, Brazil, India, Israel, Kuwait, Madagascar, Oman, Peru, Qatar, Serbia, South Africa or Turkey, who do not present such a document upon arrival in France will be directed towards a medical check point where the test will be carried out. Updated information and FAQs are available at <a href=\"https://www.diplomatie.gouv.fr/en/coming-to-france/coronavirus-advice-for-foreign-nationals-in-france/\">coronavirus advice for foreign nationals</a>.",
                "date": "2020-09-28T00:00:00Z"
              },
              {
                "country_code": "FR",
                "type": "international_travel_controls",
                "note": "Self-isolation at own accommodation-if coming from outside EU (country white list exempt). \n\nNo quarantine required for travelers from the EU/EEA and the following countries: Australia, Canada, Georgia, Japan, New Zealand, Rwanda, South Korea, Thailand, Tunisia, Uruguay. All the other third-country nationals are subject to quarantine, even if they are asymptomatic and a voluntary quarantine is suggested to travellers coming from the United Kingdom. No quarantine required from travellers from Bahrain, the United Arab Emirates, the United States, Panama, from Algeria, Brazil, India, Israel, Kuwait, Madagascar, Oman, Peru, Qatar, Serbia, South Africa or Turkey, if they present a negative result of a virology COVID-19 test conducted at most 72 hours before the flight. \n<br>\nThe following travellers may be asked to quarantine or remain in isolation upon arrival: - travellers with symptoms of COVID-19 upon arrival into France; - travellers arriving from Guadeloupe, French Guiana, Martinique, La Réunion, Mayotte, Saint-Barthélemy, Saint Martin, Saint Pierre and Miquelon, Wallis and Futuna Islands, French Polynesia, New Caledonia, the French Southern and Antarctic Territories and Clipperton; - travellers who, upon arrival, cannot show the results of a virology test carried out less than 72 hours before flying which proves that the traveller does not have COVID-19. Updated information and FAQs are available at <a href=\"https://www.diplomatie.gouv.fr/en/coming-to-france/coronavirus-advice-for-foreign-nationals-in-france/\">coronavirus advice for foreign nationals</a>.",
                "date": "2020-09-28T00:00:00Z"
              },
              {
                "country_code": "FR",
                "type": "airline",
                "note": "Air France further reduces New York service in W20",
                "date": "2020-09-24T00:00:00Z"
              },
              {
                "country_code": "FR",
                "type": "airline",
                "note": "Air France opens AF1134/07NOV20 booking to Berlin Tegel; Summer 1960 Berlin schedule",
                "date": "2020-09-23T00:00:00Z"
              },
              {
                "country_code": "FR",
                "type": "airline",
                "note": "Transavia France resumes 2 European routes in W20",
                "date": "2020-09-23T00:00:00Z"
              },
              {
                "country_code": "FR",
                "type": "airline",
                "note": "Transavia France adds new domestic routes from Nov 2020",
                "date": "2020-09-23T00:00:00Z"
              },
              {
                "country_code": "FR",
                "type": "airline",
                "note": "TwinJet adds Metz/Nancy Lorraine – Lyon service from mid-Sep 2020",
                "date": "2020-09-14T00:00:00Z"
              },
              {
                "country_code": "FR",
                "type": "airline",
                "note": "French Bee delays New York launch to late-Dec 2020",
                "date": "2020-09-14T00:00:00Z"
              },
              {
                "country_code": "FR",
                "type": "international_travel_controls",
                "note": "\"Entering the French territory is no longer possible from other countries (than the ones listed above) unless for specific imperious reasons and for French citizens or people living in France.\"  https://web.archive.org/web/20200916144252/https://reopen.europa.eu/en/map/FRA",
                "date": "2020-09-14T00:00:00Z"
              },
              {
                "country_code": "FR",
                "type": "airline",
                "note": "Air France resumes regular flights between Yerevan and Paris from 13 September",
                "date": "2020-09-11T00:00:00Z"
              },
              {
                "country_code": "FR",
                "type": "airline",
                "note": "Air France removes San Diego limited-time service in Dec 2020",
                "date": "2020-09-11T00:00:00Z"
              },
              {
                "country_code": "FR",
                "type": "airline",
                "note": "Air France East Asia W20 Inventory changes as of 09SEP20",
                "date": "2020-09-10T00:00:00Z"
              },
              {
                "country_code": "FR",
                "type": "airline",
                "note": "Air France W20 European network adjustment as of 06SEP20",
                "date": "2020-09-08T00:00:00Z"
              },
              {
                "country_code": "FR",
                "type": "airline",
                "note": "Air France to suspend Paris-Belgrade services from 24 October until 28 March",
                "date": "2020-09-02T00:00:00Z"
              },
              {
                "country_code": "FR",
                "type": "international_travel_controls",
                "note": "There are no restrictions for travellers coming from the European space, excepted the UK: 2 weeks quarantine required. Tests are mandatory for travellers coming from 'active virus circulation' zones outside the European space.  https://web.archive.org/web/20200915083127/https://www.gouvernement.fr/info-coronavirus/vacances",
                "date": "2020-09-01T00:00:00Z"
              },
              {
                "country_code": "FR",
                "type": "international_travel_controls",
                "note": "The policy has not significantly evolved, the list of non EU countries authorised is updated regularly in consultation with EU members. /web/20200916143049/https://www.diplomatie.gouv.fr/fr/le-ministere-et-son-reseau/actualites-du-ministere/informations-coronavirus-covid-19/coronavirus-les-reponses-a-vos-questions/article/coronavirus-les-reponses-a-vos-questions",
                "date": "2020-08-24T00:00:00Z"
              },
              {
                "country_code": "FR",
                "type": "international_travel_controls",
                "note": "Ban on certain countries maintained, with exceptions.   https://web.archive.org/web/20200916144926/https://www.diplomatie.gouv.fr/en/coming-to-france/coronavirus-advice-for-foreign-nationals-in-france/",
                "date": "2020-08-20T00:00:00Z"
              },
              {
                "country_code": "FR",
                "type": "airline",
                "note": "French Bee extends Tahiti service via Vancouver to late-Sep 2020",
                "date": "2020-08-19T00:00:00Z"
              },
              {
                "country_code": "FR",
                "type": "airline",
                "note": "Air France Launches Special Flights Between Paris, Morocco",
                "date": "2020-08-16T00:00:00Z"
              },
              {
                "country_code": "FR",
                "type": "airline",
                "note": "Air France extends Tahiti service via Vancouver to Sep 2020",
                "date": "2020-08-13T00:00:00Z"
              }
            ]
          }
        },
        "economic": {
          "fiscal_measures": {
            "level": 3,
            "level_desc": "3.24 billion USD stimulus package announced",
            "notes": [
              {
                "country_code": "FR",
                "type": "fiscal_measures",
                "note": "The government launched a plan to support the sectors of tourism, sports and culture: 3 billion euros. https://web.archive.org/web/20200607122854/https://www.economie.gouv.fr/covid19-soutien-entreprises/plan-soutien-secteur-tourisme",
                "date": "2020-05-14T00:00:00Z"
              },
              {
                "country_code": "FR",
                "type": "fiscal_measures",
                "note": "45 million euros  used exchange rate from that day  https://web.archive.org/save/https://www.performance-publique.budget.gouv.fr/actualites/2020/adoption-d-projet-loi-finances-rectificative-plfr-2020-en-conseil-ministres-repondre-aux-crises-economique-sanitaire-en-cours#.XoTal5NKhQL",
                "date": "2020-03-18T00:00:00Z"
              }
            ]
          }
        },
        "health_systems": {
          "public_information_campaigns": {
            "level": 2,
            "level_desc": "Level 2: Co-ordinated public information campaign (e.g. across traditional and social media)",
            "notes": [
              {
                "country_code": "FR",
                "type": "public_information_campaigns",
                "note": "FAQ of government: Information posters rolled out nationwide at train stations; https://web.archive.org/web/20200402111143/http://www.essonne.gouv.fr/content/download/30487/234871/file/FAQ%2520-%2520COVID-19%2520-%2520260220.pdf  ",
                "date": "2020-02-25T00:00:00Z"
              },
              {
                "country_code": "FR",
                "type": "public_information_campaigns",
                "note": "FAQ of government: Distribution of flyers in English, Mandarin, and French at airports beginning on January 24 (déploiement de flyers et d’affiches d’information en français, anglais et mandarin dans les aéroports); https://web.archive.org/web/20200402111143/http://www.essonne.gouv.fr/content/download/30487/234871/file/FAQ%2520-%2520COVID-19%2520-%2520260220.pdf ",
                "date": "2020-01-24T00:00:00Z"
              }
            ]
          },
          "testing_policy": {
            "level": 3,
            "level_desc": "Level 3: Open public testing (e.g. \"drive through\" testing available to asymptomatic people)",
            "notes": [
              {
                "country_code": "FR",
                "type": "testing_policy",
                "note": "Tests are free and can be carried out without a medical prescription and on non-symptomatic patients since July 25, 2020. https://web.archive.org/web/20200915140317/https://twitter.com/MinSoliSante/status/1297149019739873280?ref_src=twsrc%5Etfw%7Ctwcamp%5Etweetembed%7Ctwterm%5E1297149019739873280%7Ctwgr%5Eshare_3&ref_url=https%3A%2F%2Fwww.linternaute.fr%2Factualite%2Fguide-vie-quotidienne%2F2489431-test-covid-19-publics-prioritaires-tentes-de-depistage-ce-qui-va-changer%2F  \"Afin de faciliter le dépistage de la Covid-19, les tests PCR sont totalement pris en charge par l'assurance maladie et ne nécessitent pas de prescription d'un médecin\". https://web.archive.org/web/20200915135127/https://www.gouvernement.fr/info-coronavirus/tests-et-depistage  https://web.archive.org/web/20200915135513/https://solidarites-sante.gouv.fr/soins-et-maladies/maladies/maladies-infectieuses/coronavirus/tout-savoir-sur-la-covid-19/article/se-faire-depister-lieux-et-conditions",
                "date": "2020-07-25T00:00:00Z"
              }
            ]
          },
          "contact_tracing": {
            "level": 1,
            "level_desc": "No Advice Available",
            "notes": [
              {
                "country_code": "FR",
                "type": "contact_tracing",
                "note": "“An in-depth epidemiological inquiry is immediately opened in order to identify and contact everyone who has been in close contact with these patients,” France’s health ministry said, after announcing yet more confirmed cases on Feb 26 (2020). https://web.archive.org/save/https://www.thestar.com.my/lifestyle/health/2020/03/09/the-process-of-tracing-contacts-for-covid-19",
                "date": "2020-02-26T00:00:00Z"
              }
            ]
          },
          "emergency_investment_in_healthcare": {
            "level": 3,
            "level_desc": "1.08 million USD emergency healthcare spending announced",
            "notes": [
              {
                "country_code": "FR",
                "type": "healthcare_investment",
                "note": "\"Financement d’un projet de test de dépistage du COVID-19 par le ministère des Armées, à hauteur de 1 million d’euros.\"   The Directorate General of Armaments (DGA) will finance the immunological kit for rapid blood screening for coronavirus infection, offered by the company NG Biotech, up to €1m.  [https://web.archive.org/web/20200521123104/https://france3-regions.francetvinfo.fr/bretagne/coronavirus-ministere-armees-va-financer-projet-test-depistage-du-covid-19-porte-ng-biotech-1811700.html]    On 4th April 2020, €1mn = $1,080,970.91  [https://web.archive.org/web/20200521123356/https://www.x-rates.com/historical/?from=EUR&amount=1000000&date=2020-04-04]",
                "date": "2020-04-04T00:00:00Z"
              }
            ]
          }
        }
      }
    }
  ]
}
