{
  "users": [
    {
      "id": 1,
      "email": "user_a@test.com",
      "profile": {
        "local": {
          "firstName": "Adam",
          "lastName": "Smith",
          "phone": "+380994669881",
          "password": "pas123",
          "role": 120
        }
      }
    },
    {
      "id": 2,
      "email": "user_b@test.com",
      "profile": {
        "local": {
          "firstName": "Bob",
          "lastName": "Smith",
          "phone": "+380994669881",
          "password": "pas123",
          "role": 130
        }
      }
    },
    {
      "id": 3,
      "email": "admin@traveladviceapi.com",
      "profile": {
        "local": {
          "firstName": "Admin",
          "lastName": "Super",
          "phone": "+380994669881",
          "password": "vwQZiyhMKNA4fk",
          "role": 100
        }
      }
    }
  ]
}
